fp_sum/fp_adder_tb.vcd
$date
	Wed Jan 10 13:30:38 2024
$end
$version
	Icarus Verilog
$end
$timescale
	1ps
$end
$scope module fp_adder_tb $end
$var wire 32 ! sum [31:0] $end
$var reg 32 " a [31:0] $end
$var reg 32 # b [31:0] $end
$scope module UUT $end
$var wire 32 $ a [31:0] $end
$var wire 32 % b [31:0] $end
$var wire 1 & signos_iguales $end
$var wire 32 ' sum [31:0] $end
$var wire 25 ( subtraction_diff [24:0] $end
$var wire 31 ) sub_diff [30:0] $end
$var wire 24 * significand_sub_complement [23:0] $end
$var wire 25 + significand_sub [24:0] $end
$var wire 24 , significand_b [23:0] $end
$var wire 25 - significand_add [24:0] $end
$var wire 24 . significand_a [23:0] $end
$var wire 24 / shifted_b_significand [23:0] $end
$var wire 1 0 perform $end
$var wire 8 1 exponent_sub [7:0] $end
$var wire 8 2 exponent_shifted_b [7:0] $end
$var wire 8 3 exponent_diff [7:0] $end
$var wire 32 4 b_operand [31:0] $end
$var wire 31 5 add_sum [30:0] $end
$var wire 32 6 a_operand [31:0] $end
$scope module pe $end
$var wire 8 7 Exponent_a [7:0] $end
$var wire 25 8 significand [24:0] $end
$var wire 8 9 Exponent_sub [7:0] $end
$var reg 25 : Significand [24:0] $end
$var reg 5 ; shift [4:0] $end
$upscope $end
$upscope $end
$upscope $end
$enddefinitions $end
#0
$dumpvars
b0 ;
b1100000000000000000000000 :
b10000000 9
b100000000000000000000000 8
b10000000 7
b1000000000000000000000000000000 6
b1000000010000000000000000000000 5
b111111100000000000000000000000 4
b1 3
b10000000 2
b10000000 1
10
b10000000000000000000000 /
b100000000000000000000000 .
b110000000000000000000000 -
b100000000000000000000000 ,
b100000000000000000000000 +
b0 *
b1000000000000000000000000000000 )
b1100000000000000000000000 (
b1000000010000000000000000000000 '
1&
b1000000000000000000000000000000 %
b111111100000000000000000000000 $
b1000000000000000000000000000000 #
b111111100000000000000000000000 "
b1000000010000000000000000000000 !
$end
#10000
b110100000000000000000000000000 )
b1101000 1
b1101000 9
b11000 ;
b0 (
b0 :
b1000000000000000000000000 +
b1000000000000000000000000 8
b100000000000000000000000 *
b1000000000000000000000000000000 5
0&
b0 -
b10110100000000000000000000000000 !
b10110100000000000000000000000000 '
b100000000000000000000000 /
b0 3
10
b10000000 2
b1000000000000000000000000000000 4
b11000000000000000000000000000000 6
b11000000000000000000000000000000 "
b11000000000000000000000000000000 $
#20000
b1000000101001001000011111101101 5
b0 *
b1010010010000111111011011 -
b1000000001101101111000000100101 )
b10000000 1
b10000000 9
b0 ;
b1001101101111000000100101 (
b1001101101111000000100101 :
b110010010000111111011011 +
b110010010000111111011011 8
1&
b110010010000111111011011 .
b1000000101001001000011111101101 !
b1000000101001001000011111101101 '
b1000000010010010000111111011011 6
b1000000010010010000111111011011 "
b1000000010010010000111111011011 $
#30000
b11000 ;
b100000000000000000000000 *
b0 (
b0 :
b0 -
b1000000000000000000000000 +
b1000000000000000000000000 8
0&
b100000000000000000000000 .
b111111100000000000000000000000 5
b10110011100000000000000000000000 !
b10110011100000000000000000000000 '
b100000000000000000000000 /
b1111111 2
b0 3
10
b110011100000000000000000000000 )
b1100111 1
b1100111 9
b1111111 7
b111111100000000000000000000000 4
b10111111100000000000000000000000 6
b111111100000000000000000000000 #
b111111100000000000000000000000 %
b10111111100000000000000000000000 "
b10111111100000000000000000000000 $
#40000
b111111100000000000000000000000 )
b1111111 1
b1111111 9
b0 ;
b1100000000000000000000000 (
b1100000000000000000000000 :
b1000000000000000000000000000000 5
b100000000000000000000000 +
b100000000000000000000000 8
b0 *
b1000000000000000000000000 -
1&
b1000000000000000000000000000000 !
b1000000000000000000000000000000 '
b111111100000000000000000000000 6
b111111100000000000000000000000 "
b111111100000000000000000000000 $
#50000
b1001000000000000000000000 (
b1001000000000000000000000 :
b1101000000000000000000000 -
b111000000000000000000000 +
b111000000000000000000000 8
b1000001010100000000000000000000 !
b1000001010100000000000000000000 '
b110000000000000000000000 ,
b111000000000000000000000 .
b1000001010100000000000000000000 5
b110000000000000000000000 /
b10000001 2
b0 3
10
b1000000101000000000000000000000 )
b10000001 1
b10000001 9
b10000001 7
b1000000110000000000000000000000 4
b1000000111000000000000000000000 6
b1000000110000000000000000000000 #
b1000000110000000000000000000000 %
b1000000111000000000000000000000 "
b1000000111000000000000000000000 $
#60000
b1011100000000000000000000 (
b1011100000000000000000000 :
b100100000000000000000000 +
b100100000000000000000000 8
b1000001101010010010000111111011 !
b1000001101010010010000111111011 '
b110010010000111111011011 ,
b100100000000000000000000 .
b101010010010000111111011 -
b1000001101010010010000111111011 5
b110010010000111111011 /
b10000011 2
b11 3
10
b1000001111100000000000000000000 )
b10000011 1
b10000011 9
b10000011 7
b1000000010010010000111111011011 4
b1000001100100000000000000000000 6
b1000000010010010000111111011011 #
b1000000010010010000111111011011 %
b1000001100100000000000000000000 "
b1000001100100000000000000000000 $
#70000
b1100000000000000000000000 (
b1100000000000000000000000 :
b100000000000000000000000 +
b100000000000000000000000 8
b111000000000000000000000 ,
b100000000000000000000000 .
b111100000000000000000000 -
b1000010111100000000000000000000 5
b11000010111100000000000000000000 !
b11000010111100000000000000000000 '
b11100000000000000000000 /
b10000101 2
b1 3
10
b1000010100000000000000000000000 )
b10000101 1
b10000101 9
b10000101 7
b11000010011000000000000000000000 4
b11000010100000000000000000000000 6
b11000010011000000000000000000000 #
b11000010011000000000000000000000 %
b11000010100000000000000000000000 "
b11000010100000000000000000000000 $
