fp_sum/fp_adder_tb.vcd
$date
	Fri Jan 12 14:22:11 2024
$end
$version
	ModelSim Version 2020.1
$end
$timescale
	1ps
$end

$scope module fp_adder_tb $end
$var reg 32 ! a [31:0] $end
$var reg 32 " b [31:0] $end
$var wire 1 # sum [31] $end
$var wire 1 $ sum [30] $end
$var wire 1 % sum [29] $end
$var wire 1 & sum [28] $end
$var wire 1 ' sum [27] $end
$var wire 1 ( sum [26] $end
$var wire 1 ) sum [25] $end
$var wire 1 * sum [24] $end
$var wire 1 + sum [23] $end
$var wire 1 , sum [22] $end
$var wire 1 - sum [21] $end
$var wire 1 . sum [20] $end
$var wire 1 / sum [19] $end
$var wire 1 0 sum [18] $end
$var wire 1 1 sum [17] $end
$var wire 1 2 sum [16] $end
$var wire 1 3 sum [15] $end
$var wire 1 4 sum [14] $end
$var wire 1 5 sum [13] $end
$var wire 1 6 sum [12] $end
$var wire 1 7 sum [11] $end
$var wire 1 8 sum [10] $end
$var wire 1 9 sum [9] $end
$var wire 1 : sum [8] $end
$var wire 1 ; sum [7] $end
$var wire 1 < sum [6] $end
$var wire 1 = sum [5] $end
$var wire 1 > sum [4] $end
$var wire 1 ? sum [3] $end
$var wire 1 @ sum [2] $end
$var wire 1 A sum [1] $end
$var wire 1 B sum [0] $end

$scope module UUT $end
$var wire 1 C a [31] $end
$var wire 1 D a [30] $end
$var wire 1 E a [29] $end
$var wire 1 F a [28] $end
$var wire 1 G a [27] $end
$var wire 1 H a [26] $end
$var wire 1 I a [25] $end
$var wire 1 J a [24] $end
$var wire 1 K a [23] $end
$var wire 1 L a [22] $end
$var wire 1 M a [21] $end
$var wire 1 N a [20] $end
$var wire 1 O a [19] $end
$var wire 1 P a [18] $end
$var wire 1 Q a [17] $end
$var wire 1 R a [16] $end
$var wire 1 S a [15] $end
$var wire 1 T a [14] $end
$var wire 1 U a [13] $end
$var wire 1 V a [12] $end
$var wire 1 W a [11] $end
$var wire 1 X a [10] $end
$var wire 1 Y a [9] $end
$var wire 1 Z a [8] $end
$var wire 1 [ a [7] $end
$var wire 1 \ a [6] $end
$var wire 1 ] a [5] $end
$var wire 1 ^ a [4] $end
$var wire 1 _ a [3] $end
$var wire 1 ` a [2] $end
$var wire 1 a a [1] $end
$var wire 1 b a [0] $end
$var wire 1 c b [31] $end
$var wire 1 d b [30] $end
$var wire 1 e b [29] $end
$var wire 1 f b [28] $end
$var wire 1 g b [27] $end
$var wire 1 h b [26] $end
$var wire 1 i b [25] $end
$var wire 1 j b [24] $end
$var wire 1 k b [23] $end
$var wire 1 l b [22] $end
$var wire 1 m b [21] $end
$var wire 1 n b [20] $end
$var wire 1 o b [19] $end
$var wire 1 p b [18] $end
$var wire 1 q b [17] $end
$var wire 1 r b [16] $end
$var wire 1 s b [15] $end
$var wire 1 t b [14] $end
$var wire 1 u b [13] $end
$var wire 1 v b [12] $end
$var wire 1 w b [11] $end
$var wire 1 x b [10] $end
$var wire 1 y b [9] $end
$var wire 1 z b [8] $end
$var wire 1 { b [7] $end
$var wire 1 | b [6] $end
$var wire 1 } b [5] $end
$var wire 1 ~ b [4] $end
$var wire 1 !! b [3] $end
$var wire 1 "! b [2] $end
$var wire 1 #! b [1] $end
$var wire 1 $! b [0] $end
$var wire 1 # sum [31] $end
$var wire 1 $ sum [30] $end
$var wire 1 % sum [29] $end
$var wire 1 & sum [28] $end
$var wire 1 ' sum [27] $end
$var wire 1 ( sum [26] $end
$var wire 1 ) sum [25] $end
$var wire 1 * sum [24] $end
$var wire 1 + sum [23] $end
$var wire 1 , sum [22] $end
$var wire 1 - sum [21] $end
$var wire 1 . sum [20] $end
$var wire 1 / sum [19] $end
$var wire 1 0 sum [18] $end
$var wire 1 1 sum [17] $end
$var wire 1 2 sum [16] $end
$var wire 1 3 sum [15] $end
$var wire 1 4 sum [14] $end
$var wire 1 5 sum [13] $end
$var wire 1 6 sum [12] $end
$var wire 1 7 sum [11] $end
$var wire 1 8 sum [10] $end
$var wire 1 9 sum [9] $end
$var wire 1 : sum [8] $end
$var wire 1 ; sum [7] $end
$var wire 1 < sum [6] $end
$var wire 1 = sum [5] $end
$var wire 1 > sum [4] $end
$var wire 1 ? sum [3] $end
$var wire 1 @ sum [2] $end
$var wire 1 A sum [1] $end
$var wire 1 B sum [0] $end
$var wire 1 %! a_operand [31] $end
$var wire 1 &! a_operand [30] $end
$var wire 1 '! a_operand [29] $end
$var wire 1 (! a_operand [28] $end
$var wire 1 )! a_operand [27] $end
$var wire 1 *! a_operand [26] $end
$var wire 1 +! a_operand [25] $end
$var wire 1 ,! a_operand [24] $end
$var wire 1 -! a_operand [23] $end
$var wire 1 .! a_operand [22] $end
$var wire 1 /! a_operand [21] $end
$var wire 1 0! a_operand [20] $end
$var wire 1 1! a_operand [19] $end
$var wire 1 2! a_operand [18] $end
$var wire 1 3! a_operand [17] $end
$var wire 1 4! a_operand [16] $end
$var wire 1 5! a_operand [15] $end
$var wire 1 6! a_operand [14] $end
$var wire 1 7! a_operand [13] $end
$var wire 1 8! a_operand [12] $end
$var wire 1 9! a_operand [11] $end
$var wire 1 :! a_operand [10] $end
$var wire 1 ;! a_operand [9] $end
$var wire 1 <! a_operand [8] $end
$var wire 1 =! a_operand [7] $end
$var wire 1 >! a_operand [6] $end
$var wire 1 ?! a_operand [5] $end
$var wire 1 @! a_operand [4] $end
$var wire 1 A! a_operand [3] $end
$var wire 1 B! a_operand [2] $end
$var wire 1 C! a_operand [1] $end
$var wire 1 D! a_operand [0] $end
$var wire 1 E! b_operand [31] $end
$var wire 1 F! b_operand [30] $end
$var wire 1 G! b_operand [29] $end
$var wire 1 H! b_operand [28] $end
$var wire 1 I! b_operand [27] $end
$var wire 1 J! b_operand [26] $end
$var wire 1 K! b_operand [25] $end
$var wire 1 L! b_operand [24] $end
$var wire 1 M! b_operand [23] $end
$var wire 1 N! b_operand [22] $end
$var wire 1 O! b_operand [21] $end
$var wire 1 P! b_operand [20] $end
$var wire 1 Q! b_operand [19] $end
$var wire 1 R! b_operand [18] $end
$var wire 1 S! b_operand [17] $end
$var wire 1 T! b_operand [16] $end
$var wire 1 U! b_operand [15] $end
$var wire 1 V! b_operand [14] $end
$var wire 1 W! b_operand [13] $end
$var wire 1 X! b_operand [12] $end
$var wire 1 Y! b_operand [11] $end
$var wire 1 Z! b_operand [10] $end
$var wire 1 [! b_operand [9] $end
$var wire 1 \! b_operand [8] $end
$var wire 1 ]! b_operand [7] $end
$var wire 1 ^! b_operand [6] $end
$var wire 1 _! b_operand [5] $end
$var wire 1 `! b_operand [4] $end
$var wire 1 a! b_operand [3] $end
$var wire 1 b! b_operand [2] $end
$var wire 1 c! b_operand [1] $end
$var wire 1 d! b_operand [0] $end
$var wire 1 e! significand_a [23] $end
$var wire 1 f! significand_a [22] $end
$var wire 1 g! significand_a [21] $end
$var wire 1 h! significand_a [20] $end
$var wire 1 i! significand_a [19] $end
$var wire 1 j! significand_a [18] $end
$var wire 1 k! significand_a [17] $end
$var wire 1 l! significand_a [16] $end
$var wire 1 m! significand_a [15] $end
$var wire 1 n! significand_a [14] $end
$var wire 1 o! significand_a [13] $end
$var wire 1 p! significand_a [12] $end
$var wire 1 q! significand_a [11] $end
$var wire 1 r! significand_a [10] $end
$var wire 1 s! significand_a [9] $end
$var wire 1 t! significand_a [8] $end
$var wire 1 u! significand_a [7] $end
$var wire 1 v! significand_a [6] $end
$var wire 1 w! significand_a [5] $end
$var wire 1 x! significand_a [4] $end
$var wire 1 y! significand_a [3] $end
$var wire 1 z! significand_a [2] $end
$var wire 1 {! significand_a [1] $end
$var wire 1 |! significand_a [0] $end
$var wire 1 }! significand_b [23] $end
$var wire 1 ~! significand_b [22] $end
$var wire 1 !" significand_b [21] $end
$var wire 1 "" significand_b [20] $end
$var wire 1 #" significand_b [19] $end
$var wire 1 $" significand_b [18] $end
$var wire 1 %" significand_b [17] $end
$var wire 1 &" significand_b [16] $end
$var wire 1 '" significand_b [15] $end
$var wire 1 (" significand_b [14] $end
$var wire 1 )" significand_b [13] $end
$var wire 1 *" significand_b [12] $end
$var wire 1 +" significand_b [11] $end
$var wire 1 ," significand_b [10] $end
$var wire 1 -" significand_b [9] $end
$var wire 1 ." significand_b [8] $end
$var wire 1 /" significand_b [7] $end
$var wire 1 0" significand_b [6] $end
$var wire 1 1" significand_b [5] $end
$var wire 1 2" significand_b [4] $end
$var wire 1 3" significand_b [3] $end
$var wire 1 4" significand_b [2] $end
$var wire 1 5" significand_b [1] $end
$var wire 1 6" significand_b [0] $end
$var wire 1 7" exponent_diff [7] $end
$var wire 1 8" exponent_diff [6] $end
$var wire 1 9" exponent_diff [5] $end
$var wire 1 :" exponent_diff [4] $end
$var wire 1 ;" exponent_diff [3] $end
$var wire 1 <" exponent_diff [2] $end
$var wire 1 =" exponent_diff [1] $end
$var wire 1 >" exponent_diff [0] $end
$var wire 1 ?" shifted_b_significand [23] $end
$var wire 1 @" shifted_b_significand [22] $end
$var wire 1 A" shifted_b_significand [21] $end
$var wire 1 B" shifted_b_significand [20] $end
$var wire 1 C" shifted_b_significand [19] $end
$var wire 1 D" shifted_b_significand [18] $end
$var wire 1 E" shifted_b_significand [17] $end
$var wire 1 F" shifted_b_significand [16] $end
$var wire 1 G" shifted_b_significand [15] $end
$var wire 1 H" shifted_b_significand [14] $end
$var wire 1 I" shifted_b_significand [13] $end
$var wire 1 J" shifted_b_significand [12] $end
$var wire 1 K" shifted_b_significand [11] $end
$var wire 1 L" shifted_b_significand [10] $end
$var wire 1 M" shifted_b_significand [9] $end
$var wire 1 N" shifted_b_significand [8] $end
$var wire 1 O" shifted_b_significand [7] $end
$var wire 1 P" shifted_b_significand [6] $end
$var wire 1 Q" shifted_b_significand [5] $end
$var wire 1 R" shifted_b_significand [4] $end
$var wire 1 S" shifted_b_significand [3] $end
$var wire 1 T" shifted_b_significand [2] $end
$var wire 1 U" shifted_b_significand [1] $end
$var wire 1 V" shifted_b_significand [0] $end
$var wire 1 W" exponent_shifted_b [7] $end
$var wire 1 X" exponent_shifted_b [6] $end
$var wire 1 Y" exponent_shifted_b [5] $end
$var wire 1 Z" exponent_shifted_b [4] $end
$var wire 1 [" exponent_shifted_b [3] $end
$var wire 1 \" exponent_shifted_b [2] $end
$var wire 1 ]" exponent_shifted_b [1] $end
$var wire 1 ^" exponent_shifted_b [0] $end
$var wire 1 _" perform $end
$var wire 1 `" significand_add [24] $end
$var wire 1 a" significand_add [23] $end
$var wire 1 b" significand_add [22] $end
$var wire 1 c" significand_add [21] $end
$var wire 1 d" significand_add [20] $end
$var wire 1 e" significand_add [19] $end
$var wire 1 f" significand_add [18] $end
$var wire 1 g" significand_add [17] $end
$var wire 1 h" significand_add [16] $end
$var wire 1 i" significand_add [15] $end
$var wire 1 j" significand_add [14] $end
$var wire 1 k" significand_add [13] $end
$var wire 1 l" significand_add [12] $end
$var wire 1 m" significand_add [11] $end
$var wire 1 n" significand_add [10] $end
$var wire 1 o" significand_add [9] $end
$var wire 1 p" significand_add [8] $end
$var wire 1 q" significand_add [7] $end
$var wire 1 r" significand_add [6] $end
$var wire 1 s" significand_add [5] $end
$var wire 1 t" significand_add [4] $end
$var wire 1 u" significand_add [3] $end
$var wire 1 v" significand_add [2] $end
$var wire 1 w" significand_add [1] $end
$var wire 1 x" significand_add [0] $end
$var wire 1 y" add_sum [30] $end
$var wire 1 z" add_sum [29] $end
$var wire 1 {" add_sum [28] $end
$var wire 1 |" add_sum [27] $end
$var wire 1 }" add_sum [26] $end
$var wire 1 ~" add_sum [25] $end
$var wire 1 !# add_sum [24] $end
$var wire 1 "# add_sum [23] $end
$var wire 1 ## add_sum [22] $end
$var wire 1 $# add_sum [21] $end
$var wire 1 %# add_sum [20] $end
$var wire 1 &# add_sum [19] $end
$var wire 1 '# add_sum [18] $end
$var wire 1 (# add_sum [17] $end
$var wire 1 )# add_sum [16] $end
$var wire 1 *# add_sum [15] $end
$var wire 1 +# add_sum [14] $end
$var wire 1 ,# add_sum [13] $end
$var wire 1 -# add_sum [12] $end
$var wire 1 .# add_sum [11] $end
$var wire 1 /# add_sum [10] $end
$var wire 1 0# add_sum [9] $end
$var wire 1 1# add_sum [8] $end
$var wire 1 2# add_sum [7] $end
$var wire 1 3# add_sum [6] $end
$var wire 1 4# add_sum [5] $end
$var wire 1 5# add_sum [4] $end
$var wire 1 6# add_sum [3] $end
$var wire 1 7# add_sum [2] $end
$var wire 1 8# add_sum [1] $end
$var wire 1 9# add_sum [0] $end
$var wire 1 :# significand_sub_complement [23] $end
$var wire 1 ;# significand_sub_complement [22] $end
$var wire 1 <# significand_sub_complement [21] $end
$var wire 1 =# significand_sub_complement [20] $end
$var wire 1 ># significand_sub_complement [19] $end
$var wire 1 ?# significand_sub_complement [18] $end
$var wire 1 @# significand_sub_complement [17] $end
$var wire 1 A# significand_sub_complement [16] $end
$var wire 1 B# significand_sub_complement [15] $end
$var wire 1 C# significand_sub_complement [14] $end
$var wire 1 D# significand_sub_complement [13] $end
$var wire 1 E# significand_sub_complement [12] $end
$var wire 1 F# significand_sub_complement [11] $end
$var wire 1 G# significand_sub_complement [10] $end
$var wire 1 H# significand_sub_complement [9] $end
$var wire 1 I# significand_sub_complement [8] $end
$var wire 1 J# significand_sub_complement [7] $end
$var wire 1 K# significand_sub_complement [6] $end
$var wire 1 L# significand_sub_complement [5] $end
$var wire 1 M# significand_sub_complement [4] $end
$var wire 1 N# significand_sub_complement [3] $end
$var wire 1 O# significand_sub_complement [2] $end
$var wire 1 P# significand_sub_complement [1] $end
$var wire 1 Q# significand_sub_complement [0] $end
$var wire 1 R# significand_sub [24] $end
$var wire 1 S# significand_sub [23] $end
$var wire 1 T# significand_sub [22] $end
$var wire 1 U# significand_sub [21] $end
$var wire 1 V# significand_sub [20] $end
$var wire 1 W# significand_sub [19] $end
$var wire 1 X# significand_sub [18] $end
$var wire 1 Y# significand_sub [17] $end
$var wire 1 Z# significand_sub [16] $end
$var wire 1 [# significand_sub [15] $end
$var wire 1 \# significand_sub [14] $end
$var wire 1 ]# significand_sub [13] $end
$var wire 1 ^# significand_sub [12] $end
$var wire 1 _# significand_sub [11] $end
$var wire 1 `# significand_sub [10] $end
$var wire 1 a# significand_sub [9] $end
$var wire 1 b# significand_sub [8] $end
$var wire 1 c# significand_sub [7] $end
$var wire 1 d# significand_sub [6] $end
$var wire 1 e# significand_sub [5] $end
$var wire 1 f# significand_sub [4] $end
$var wire 1 g# significand_sub [3] $end
$var wire 1 h# significand_sub [2] $end
$var wire 1 i# significand_sub [1] $end
$var wire 1 j# significand_sub [0] $end
$var wire 1 k# sub_diff [30] $end
$var wire 1 l# sub_diff [29] $end
$var wire 1 m# sub_diff [28] $end
$var wire 1 n# sub_diff [27] $end
$var wire 1 o# sub_diff [26] $end
$var wire 1 p# sub_diff [25] $end
$var wire 1 q# sub_diff [24] $end
$var wire 1 r# sub_diff [23] $end
$var wire 1 s# sub_diff [22] $end
$var wire 1 t# sub_diff [21] $end
$var wire 1 u# sub_diff [20] $end
$var wire 1 v# sub_diff [19] $end
$var wire 1 w# sub_diff [18] $end
$var wire 1 x# sub_diff [17] $end
$var wire 1 y# sub_diff [16] $end
$var wire 1 z# sub_diff [15] $end
$var wire 1 {# sub_diff [14] $end
$var wire 1 |# sub_diff [13] $end
$var wire 1 }# sub_diff [12] $end
$var wire 1 ~# sub_diff [11] $end
$var wire 1 !$ sub_diff [10] $end
$var wire 1 "$ sub_diff [9] $end
$var wire 1 #$ sub_diff [8] $end
$var wire 1 $$ sub_diff [7] $end
$var wire 1 %$ sub_diff [6] $end
$var wire 1 &$ sub_diff [5] $end
$var wire 1 '$ sub_diff [4] $end
$var wire 1 ($ sub_diff [3] $end
$var wire 1 )$ sub_diff [2] $end
$var wire 1 *$ sub_diff [1] $end
$var wire 1 +$ sub_diff [0] $end
$var wire 1 ,$ subtraction_diff [24] $end
$var wire 1 -$ subtraction_diff [23] $end
$var wire 1 .$ subtraction_diff [22] $end
$var wire 1 /$ subtraction_diff [21] $end
$var wire 1 0$ subtraction_diff [20] $end
$var wire 1 1$ subtraction_diff [19] $end
$var wire 1 2$ subtraction_diff [18] $end
$var wire 1 3$ subtraction_diff [17] $end
$var wire 1 4$ subtraction_diff [16] $end
$var wire 1 5$ subtraction_diff [15] $end
$var wire 1 6$ subtraction_diff [14] $end
$var wire 1 7$ subtraction_diff [13] $end
$var wire 1 8$ subtraction_diff [12] $end
$var wire 1 9$ subtraction_diff [11] $end
$var wire 1 :$ subtraction_diff [10] $end
$var wire 1 ;$ subtraction_diff [9] $end
$var wire 1 <$ subtraction_diff [8] $end
$var wire 1 =$ subtraction_diff [7] $end
$var wire 1 >$ subtraction_diff [6] $end
$var wire 1 ?$ subtraction_diff [5] $end
$var wire 1 @$ subtraction_diff [4] $end
$var wire 1 A$ subtraction_diff [3] $end
$var wire 1 B$ subtraction_diff [2] $end
$var wire 1 C$ subtraction_diff [1] $end
$var wire 1 D$ subtraction_diff [0] $end
$var wire 1 E$ exponent_sub [7] $end
$var wire 1 F$ exponent_sub [6] $end
$var wire 1 G$ exponent_sub [5] $end
$var wire 1 H$ exponent_sub [4] $end
$var wire 1 I$ exponent_sub [3] $end
$var wire 1 J$ exponent_sub [2] $end
$var wire 1 K$ exponent_sub [1] $end
$var wire 1 L$ exponent_sub [0] $end
$var wire 1 M$ signos_iguales $end

$scope module pe $end
$var wire 1 R# significand [24] $end
$var wire 1 S# significand [23] $end
$var wire 1 T# significand [22] $end
$var wire 1 U# significand [21] $end
$var wire 1 V# significand [20] $end
$var wire 1 W# significand [19] $end
$var wire 1 X# significand [18] $end
$var wire 1 Y# significand [17] $end
$var wire 1 Z# significand [16] $end
$var wire 1 [# significand [15] $end
$var wire 1 \# significand [14] $end
$var wire 1 ]# significand [13] $end
$var wire 1 ^# significand [12] $end
$var wire 1 _# significand [11] $end
$var wire 1 `# significand [10] $end
$var wire 1 a# significand [9] $end
$var wire 1 b# significand [8] $end
$var wire 1 c# significand [7] $end
$var wire 1 d# significand [6] $end
$var wire 1 e# significand [5] $end
$var wire 1 f# significand [4] $end
$var wire 1 g# significand [3] $end
$var wire 1 h# significand [2] $end
$var wire 1 i# significand [1] $end
$var wire 1 j# significand [0] $end
$var wire 1 &! Exponent_a [7] $end
$var wire 1 '! Exponent_a [6] $end
$var wire 1 (! Exponent_a [5] $end
$var wire 1 )! Exponent_a [4] $end
$var wire 1 *! Exponent_a [3] $end
$var wire 1 +! Exponent_a [2] $end
$var wire 1 ,! Exponent_a [1] $end
$var wire 1 -! Exponent_a [0] $end
$var reg 25 N$ Significand [24:0] $end
$var wire 1 E$ Exponent_sub [7] $end
$var wire 1 F$ Exponent_sub [6] $end
$var wire 1 G$ Exponent_sub [5] $end
$var wire 1 H$ Exponent_sub [4] $end
$var wire 1 I$ Exponent_sub [3] $end
$var wire 1 J$ Exponent_sub [2] $end
$var wire 1 K$ Exponent_sub [1] $end
$var wire 1 L$ Exponent_sub [0] $end
$var reg 5 O$ shift [4:0] $end
$upscope $end
$upscope $end
$upscope $end
$enddefinitions $end
#0
$dumpvars
b111111100000000000000000000000 !
b1000000000000000000000000000000 "
b1100000000000000000000000 N$
b0 O$
0B
0A
0@
0?
0>
0=
0<
0;
0:
09
08
07
06
05
04
03
02
01
00
0/
0.
0-
1,
0+
0*
0)
0(
0'
0&
0%
1$
0#
0D!
0C!
0B!
0A!
0@!
0?!
0>!
0=!
0<!
0;!
0:!
09!
08!
07!
06!
05!
04!
03!
02!
01!
00!
0/!
0.!
0-!
0,!
0+!
0*!
0)!
0(!
0'!
1&!
0%!
0d!
0c!
0b!
0a!
0`!
0_!
0^!
0]!
0\!
0[!
0Z!
0Y!
0X!
0W!
0V!
0U!
0T!
0S!
0R!
0Q!
0P!
0O!
0N!
1M!
1L!
1K!
1J!
1I!
1H!
1G!
0F!
0E!
0|!
0{!
0z!
0y!
0x!
0w!
0v!
0u!
0t!
0s!
0r!
0q!
0p!
0o!
0n!
0m!
0l!
0k!
0j!
0i!
0h!
0g!
0f!
1e!
06"
05"
04"
03"
02"
01"
00"
0/"
0."
0-"
0,"
0+"
0*"
0)"
0("
0'"
0&"
0%"
0$"
0#"
0""
0!"
0~!
1}!
1>"
0="
0<"
0;"
0:"
09"
08"
07"
0V"
0U"
0T"
0S"
0R"
0Q"
0P"
0O"
0N"
0M"
0L"
0K"
0J"
0I"
0H"
0G"
0F"
0E"
0D"
0C"
0B"
0A"
1@"
0?"
0^"
0]"
0\"
0["
0Z"
0Y"
0X"
1W"
1_"
0x"
0w"
0v"
0u"
0t"
0s"
0r"
0q"
0p"
0o"
0n"
0m"
0l"
0k"
0j"
0i"
0h"
0g"
0f"
0e"
0d"
0c"
1b"
1a"
0`"
09#
08#
07#
06#
05#
04#
03#
02#
01#
00#
0/#
0.#
0-#
0,#
0+#
0*#
0)#
0(#
0'#
0&#
0%#
0$#
1##
0"#
0!#
0~"
0}"
0|"
0{"
0z"
1y"
0Q#
0P#
0O#
0N#
0M#
0L#
0K#
0J#
0I#
0H#
0G#
0F#
0E#
0D#
0C#
0B#
0A#
0@#
0?#
0>#
0=#
0<#
0;#
0:#
0j#
0i#
0h#
0g#
0f#
0e#
0d#
0c#
0b#
0a#
0`#
0_#
0^#
0]#
0\#
0[#
0Z#
0Y#
0X#
0W#
0V#
0U#
0T#
1S#
0R#
0+$
0*$
0)$
0($
0'$
0&$
0%$
0$$
0#$
0"$
0!$
0~#
0}#
0|#
0{#
0z#
0y#
0x#
0w#
0v#
0u#
0t#
0s#
0r#
0q#
0p#
0o#
0n#
0m#
0l#
1k#
0D$
0C$
0B$
0A$
0@$
0?$
0>$
0=$
0<$
0;$
0:$
09$
08$
07$
06$
05$
04$
03$
02$
01$
00$
0/$
0.$
1-$
1,$
0L$
0K$
0J$
0I$
0H$
0G$
0F$
1E$
1M$
0b
0a
0`
0_
0^
0]
0\
0[
0Z
0Y
0X
0W
0V
0U
0T
0S
0R
0Q
0P
0O
0N
0M
0L
1K
1J
1I
1H
1G
1F
1E
0D
0C
0$!
0#!
0"!
0!!
0~
0}
0|
0{
0z
0y
0x
0w
0v
0u
0t
0s
0r
0q
0p
0o
0n
0m
0l
0k
0j
0i
0h
0g
0f
0e
1d
0c
$end
#10000
b11000000000000000000000000000000 !
0K
0J
0I
0H
0G
0F
0E
1D
1C
0M!
0L!
0K!
0J!
0I!
0H!
0G!
1F!
1%!
0M$
0b"
0a"
1;#
1:#
0,
1#
0>"
1^"
0@"
1?"
0^"
0##
0_"
0;#
0:#
1_"
1:#
0S#
1R#
b0 N$
b11000 O$
1I$
1G$
1F$
0E$
0-$
0,$
1o#
1m#
1l#
0k#
1(
1&
1%
0$
#20000
b1000000010010010000111111011011 !
1b
1a
1_
1^
1\
1[
1Z
1Y
1X
1W
1R
1O
1L
0C
1D!
1C!
1A!
1@!
1>!
1=!
1<!
1;!
1:!
19!
14!
11!
1.!
0%!
1M$
1`"
0:#
0(
0&
0%
1$
0#
1|!
1{!
1y!
1x!
1v!
1u!
1t!
1s!
1r!
1q!
1l!
1i!
1f!
1x"
1w"
1u"
1t"
1r"
1q"
1p"
1o"
1n"
1m"
1h"
1e"
1b"
1"#
1+
19#
17#
16#
14#
13#
12#
11#
10#
1/#
1*#
1'#
1$#
1B
1@
1?
1=
1<
1;
1:
19
18
13
10
1-
1j#
1i#
1g#
1f#
1d#
1c#
1b#
1a#
1`#
1_#
1Z#
1W#
1T#
1S#
0R#
b1001101101111000000100101 N$
b0 O$
0I$
0G$
0F$
1E$
1D$
1B$
1?$
18$
17$
16$
15$
13$
12$
10$
1/$
1,$
1+$
1)$
1&$
1}#
1|#
1{#
1z#
1x#
1w#
1u#
1t#
0o#
0m#
0l#
1k#
#30000
b10111111100000000000000000000000 !
b111111100000000000000000000000 "
1k
1j
1i
1h
1g
1f
1e
0d
0b
0a
0_
0^
0\
0[
0Z
0Y
0X
0W
0R
0O
0L
1K
1J
1I
1H
1G
1F
1E
0D
1C
1M!
1L!
1K!
1J!
1I!
1H!
1G!
0F!
0D!
0C!
0A!
0@!
0>!
0=!
0<!
0;!
0:!
09!
04!
01!
0.!
1-!
1,!
1+!
1*!
1)!
1(!
1'!
0&!
1%!
0M$
0_"
0x"
0w"
0u"
0t"
0r"
0q"
0p"
0o"
0n"
0m"
0h"
0e"
0b"
0`"
1:#
0?
0<
0;
0:
09
08
16
15
14
11
1.
0+
1#
0"#
1L$
1K$
1J$
1I$
1H$
1G$
1F$
0E$
0|!
0{!
0y!
0x!
0v!
0u!
0t!
0s!
0r!
0q!
0l!
0i!
0f!
1^"
1]"
1\"
1["
1Z"
1Y"
1X"
0W"
1r#
1q#
1p#
1o#
1n#
1m#
1l#
0k#
1"#
1!#
1~"
1}"
1|"
1{"
1z"
0y"
09#
07#
06#
04#
03#
02#
01#
00#
0/#
0*#
0'#
0$#
0:#
1_"
1:#
1+
1*
1)
1(
1'
1&
1%
0$
0j#
0i#
0g#
0f#
0d#
0c#
0b#
0a#
0`#
0_#
0Z#
0W#
0T#
0S#
1R#
b0 N$
b11000 O$
0I$
0H$
0D$
0B$
0?$
08$
07$
06$
05$
03$
02$
00$
0/$
0,$
0+$
0)$
0&$
0}#
0|#
0{#
0z#
0x#
0w#
0u#
0t#
0o#
0n#
0B
0@
0=
06
05
04
03
01
00
0.
0-
0(
0'
#40000
b111111100000000000000000000000 !
0C
0%!
1M$
1`"
0:#
1(
1'
0#
0"#
0!#
0~"
0}"
0|"
0{"
0z"
1y"
0+
0*
0)
0(
0'
0&
0%
1$
1S#
0R#
b1100000000000000000000000 N$
b0 O$
1I$
1H$
1-$
1,$
1o#
1n#
#50000
b1000000111000000000000000000000 !
b1000000110000000000000000000000 "
1l
0j
0i
0h
0g
0f
0e
1d
1M
1L
0J
0I
0H
0G
0F
0E
1D
1N!
0L!
0K!
0J!
0I!
0H!
0G!
1F!
1/!
1.!
0,!
0+!
0*!
0)!
0(!
0'!
1&!
1!#
0K$
0J$
0I$
0H$
0G$
0F$
1E$
1g!
1f!
0]"
0\"
0["
0Z"
0Y"
0X"
1W"
1~!
0_"
1_"
1@"
0`"
0q#
0p#
0o#
0n#
0m#
0l#
1k#
1*
1"#
0!#
1c"
1a"
1`"
0"#
1!#
1%#
1##
1+
0*
1.
1,
0+
1*
1U#
1T#
b1001000000000000000000000 N$
1/$
0-$
1t#
#60000
b1000001100100000000000000000000 !
b1000000010010010000111111011011 "
1$!
1#!
1!!
1~
1|
1{
1z
1y
1x
1w
1r
1o
0k
1N
0M
0L
1J
1d!
1c!
1a!
1`!
1^!
1]!
1\!
1[!
1Z!
1Y!
1T!
1Q!
0M!
10!
0/!
0.!
1,!
0!#
1~"
1K$
1h!
0g!
0f!
1>"
1="
0^"
16"
15"
13"
12"
10"
1/"
1."
1-"
1,"
1+"
1&"
1#"
0_"
1V"
1U"
1S"
1R"
1Q"
1P"
1O"
1N"
1I"
1F"
1C"
1B"
0@"
0?"
1^"
1]"
0c"
0a"
0`"
1q#
0*
1)
1_"
1"#
1!#
0~"
0%#
0##
0.
0,
1+
1*
0)
1x"
1w"
1u"
1t"
1s"
1r"
1q"
1p"
1k"
1h"
1e"
1c"
1a"
19#
18#
16#
15#
14#
13#
12#
11#
1,#
1)#
1&#
1$#
1B
1A
1?
1>
1=
1<
1;
1:
15
12
1/
1-
1V#
0U#
0T#
b1011100000000000000000000 N$
10$
1.$
1u#
1s#
#70000
b11000010100000000000000000000000 !
b11000010011000000000000000000000 "
0$!
0#!
0!!
0~
0|
0{
0z
0y
0x
0w
0r
0o
1m
1i
1c
0N
0J
1I
1C
0d!
0c!
0a!
0`!
0^!
0]!
0\!
0[!
0Z!
0Y!
0T!
0Q!
1O!
1K!
1E!
00!
0,!
1+!
1%!
0_"
1#
0!#
1~"
0K$
1J$
0h!
0="
1\"
06"
05"
03"
02"
00"
0/"
0."
0-"
0,"
0+"
0&"
0#"
1!"
0V"
0U"
0S"
0R"
0Q"
0P"
0O"
0N"
0I"
0F"
0C"
1A"
1@"
0]"
0q#
1p#
0*
1)
0x"
0w"
0u"
0t"
0s"
0r"
0q"
0p"
0k"
0h"
0e"
0c"
0a"
1_"
09#
08#
06#
05#
04#
03#
02#
01#
0,#
0)#
0&#
0$#
0B
0A
0?
0>
0=
0<
0;
0:
05
02
0/
0-
1d"
1c"
1b"
1a"
1%#
1$#
1##
1.
1-
1,
0V#
b1100000000000000000000000 N$
00$
0/$
0.$
1-$
0u#
0t#
0s#
#80000
b1000100100000000000001100110011 !
b11000010110010000000000000000000 "
1o
0m
1k
1b
1a
1^
1]
1Z
1Y
0I
1H
0C
1Q!
0O!
1M!
1D!
1C!
1@!
1?!
1<!
1;!
0+!
1*!
0%!
0M$
0_"
0d"
0c"
0b"
0a"
1=#
1:#
0.
0-
0,
0#
0~"
1}"
0J$
1I$
1|!
1{!
1x!
1w!
1t!
1s!
0>"
1<"
0^"
1]"
1#"
0!"
1G"
1D"
1C"
0B"
0A"
0@"
1^"
0]"
0\"
1["
0p#
1o#
0%#
0$#
0##
0=#
0:#
1_"
0)
1(
1B#
1A#
1@#
1=#
1<#
1;#
1:#
1j#
1i#
1f#
1e#
1b#
1a#
1[#
1Z#
1Y#
1V#
1U#
1T#
0S#
1R#
b111001110000011001100110 N$
b1 O$
0L$
1C$
1B$
1?$
1>$
1;$
1:$
14$
13$
12$
1/$
1.$
0,$
1*$
1)$
1&$
1%$
1"$
1!$
1y#
1x#
1w#
1t#
1s#
0r#
1A
1@
1=
1<
19
18
12
11
10
1-
1,
0+
